b'\r\n\r\n\njsonp753({"rateDetail":{"paginator":{"items":1071,"lastPage":54,"page":51},"rateCount":{"picNum":211,"shop":0,"total":1242,"used":82},"rateDanceInfo":{"currentMilles":1492167880577,"intervalMilles":202945404540,"showChooseTopic":false,"storeType":4},"rateList":[{"aliMallSeller":false,"anony":true,"appendComment":"","attributes":"","attributesMap":"","aucNumId":"","auctionPicUrl":"","auctionPrice":"","auctionSku":"\xbb\xfa\xc9\xed\xd1\xd5\xc9\xab:\xba\xda\xc9\xab;\xcc\xd7\xb2\xcd\xc0\xe0\xd0\xcd:\xb9\xd9\xb7\xbd\xb1\xea\xc5\xe4;\xb4\xe6\xb4\xa2\xc8\xdd\xc1\xbf:16MB;\xb0\xe6\xb1\xbe\xc0\xe0\xd0\xcd:\xd6\xd0\xb9\xfa\xb4\xf3\xc2\xbd","auctionTitle":"","buyCount":0,"carServiceLocation":"","cmsSource":"\xcc\xec\xc3\xa8","displayRatePic":"","displayRateSum":0,"displayUserLink":"","displayUserNick":"l***\xca\xde","displayUserNumId":"","displayUserRateLink":"","dsr":0.0,"fromMall":true,"fromMemory":0,"gmtCreateTime":1481947202000,"id":295887803471,"pics":"","picsSmall":"","position":"920-11-10,17;920-12-5,7;","rateContent":"\xc9\xf9\xd2\xf4\xcf\xec  \xd7\xd6\xb4\xf3   \xbc\xd2\xc0\xef\xc8\xcb\xbe\xf5\xb5\xc3\xb2\xbb\xb4\xed","rateDate":"2016-12-17 12:00:02","reply":"","sellerId":1710401270,"serviceRateContent":"","structuredRateList":[],"tamllSweetLevel":0,"tmallSweetPic":"","tradeEndTime":1481947147000,"tradeId":"","useful":true,"userIdEncryption":"","userInfo":"","userVipLevel":0,"userVipPic":""},{"aliMallSeller":false,"anony":true,"appendComment":"","attributes":"","attributesMap":"","aucNumId":"","auctionPicUrl":"","auctionPrice":"","auctionSku":"\xbb\xfa\xc9\xed\xd1\xd5\xc9\xab:\xba\xda\xc9\xab;\xcc\xd7\xb2\xcd\xc0\xe0\xd0\xcd:\xcc\xd7\xb2\xcd\xb6\xfe;\xb4\xe6\xb4\xa2\xc8\xdd\xc1\xbf:32MB;\xb0\xe6\xb1\xbe\xc0\xe0\xd0\xcd:\xd6\xd0\xb9\xfa\xb4\xf3\xc2\xbd","auctionTitle":"","buyCount":0,"carServiceLocation":"","cmsSource":"\xcc\xec\xc3\xa8","displayRatePic":"","displayRateSum":0,"displayUserLink":"","displayUserNick":"\xcf\xb2***3","displayUserNumId":"","displayUserRateLink":"","dsr":0.0,"fromMall":true,"fromMemory":0,"gmtCreateTime":1481390455000,"id":295273382650,"pics":"","picsSmall":"","position":"","rateContent":"\xb8\xf8\xc2\xe8\xc2\xe8\xc2\xf2\xb5\xc4\xa3\xac\xc2\xe8\xc2\xe8\xcb\xb5\xd3\xc3\xd7\xc5\xbb\xb9\xd0\xd0\xa3\xa1","rateDate":"2016-12-11 01:20:55","reply":"","sellerId":1710401270,"serviceRateContent":"","structuredRateList":[],"tamllSweetLevel":0,"tmallSweetPic":"","tradeEndTime":1481390420000,"tradeId":"","useful":true,"userIdEncryption":"","userInfo":"","userVipLevel":0,"userVipPic":""},{"aliMallSeller":false,"anony":true,"appendComment":"","attributes":"","attributesMap":"","aucNumId":"","auctionPicUrl":"","auctionPrice":"","auctionSku":"\xbb\xfa\xc9\xed\xd1\xd5\xc9\xab:\xba\xec\xc9\xab;\xcc\xd7\xb2\xcd\xc0\xe0\xd0\xcd:\xb9\xd9\xb7\xbd\xb1\xea\xc5\xe4;\xb4\xe6\xb4\xa2\xc8\xdd\xc1\xbf:32MB;\xb0\xe6\xb1\xbe\xc0\xe0\xd0\xcd:\xd6\xd0\xb9\xfa\xb4\xf3\xc2\xbd","auctionTitle":"","buyCount":0,"carServiceLocation":"","cmsSource":"\xcc\xec\xc3\xa8","displayRatePic":"","displayRateSum":0,"displayUserLink":"","displayUserNick":"\xd0\xec***\xb3\xbd","displayUserNumId":"","displayUserRateLink":"","dsr":0.0,"fromMall":true,"fromMemory":0,"gmtCreateTime":1482212651000,"id":296379335878,"pics":"","picsSmall":"","position":"920-11-12,21;620-12-0,5;620-11-6,11;920-11-22,24;","rateContent":"\xb1\xa6\xb1\xb4\xca\xd5\xb5\xbd\xc1\xcb\xa3\xac\xd6\xca\xc1\xbf\xb3\xac\xbc\xb6\xba\xc3\xa3\xac\xcc\xd8\xb1\xf0\xca\xca\xba\xcf\xc0\xcf\xc8\xcb\xbc\xd2\xca\xb9\xd3\xc3\xa3\xa1\xba\xc3\xc6\xc0","rateDate":"2016-12-20 13:44:11","reply":"","sellerId":1710401270,"serviceRateContent":"","structuredRateList":[],"tamllSweetLevel":3,"tmallSweetPic":"tmall-grade-t3-18.png","tradeEndTime":1482212533000,"tradeId":"","useful":true,"userIdEncryption":"","userInfo":"","userVipLevel":0,"userVipPic":""},{"aliMallSeller":false,"anony":true,"appendComment":"","attributes":"","attributesMap":"","aucNumId":"","auctionPicUrl":"","auctionPrice":"","auctionSku":"\xbb\xfa\xc9\xed\xd1\xd5\xc9\xab:\xba\xda\xc9\xab;\xcc\xd7\xb2\xcd\xc0\xe0\xd0\xcd:\xb9\xd9\xb7\xbd\xb1\xea\xc5\xe4;\xb4\xe6\xb4\xa2\xc8\xdd\xc1\xbf:32MB;\xb0\xe6\xb1\xbe\xc0\xe0\xd0\xcd:\xd6\xd0\xb9\xfa\xb4\xf3\xc2\xbd","auctionTitle":"","buyCount":0,"carServiceLocation":"","cmsSource":"\xcc\xec\xc3\xa8","displayRatePic":"","displayRateSum":0,"displayUserLink":"","displayUserNick":"l***8","displayUserNumId":"","displayUserRateLink":"","dsr":0.0,"fromMall":true,"fromMemory":0,"gmtCreateTime":1481777781000,"id":295865917184,"pics":"","picsSmall":"","position":"","rateContent":"\xba\xcf\xca\xca\xc0\xcf\xc8\xcb\xd3\xc3","rateDate":"2016-12-15 12:56:21","reply":"","sellerId":1710401270,"serviceRateContent":"","structuredRateList":[],"tamllSweetLevel":0,"tmallSweetPic":"","tradeEndTime":1481703206000,"tradeId":"","useful":true,"userIdEncryption":"","userInfo":"","userVipLevel":0,"userVipPic":""},{"aliMallSeller":false,"anony":true,"appendComment":"","attributes":"","attributesMap":"","aucNumId":"","auctionPicUrl":"","auctionPrice":"","auctionSku":"\xbb\xfa\xc9\xed\xd1\xd5\xc9\xab:\xba\xda\xc9\xab;\xcc\xd7\xb2\xcd\xc0\xe0\xd0\xcd:\xcc\xd7\xb2\xcd\xc8\xfd;\xb4\xe6\xb4\xa2\xc8\xdd\xc1\xbf:32MB;\xb0\xe6\xb1\xbe\xc0\xe0\xd0\xcd:\xd6\xd0\xb9\xfa\xb4\xf3\xc2\xbd","auctionTitle":"","buyCount":0,"carServiceLocation":"","cmsSource":"\xcc\xec\xc3\xa8","displayRatePic":"","displayRateSum":0,"displayUserLink":"","displayUserNick":"t***4","displayUserNumId":"","displayUserRateLink":"","dsr":0.0,"fromMall":true,"fromMemory":0,"gmtCreateTime":1482747783000,"id":297053095376,"pics":"","picsSmall":"","position":"220-13-0,10;","rateContent":"\xc4\xc7\xb8\xf6\xb0\xfc\xd7\xb0\xd6\xbd\xce\xb6\xb5\xc0\xb3\xac\xc4\xd1\xce\xc5\xa3\xa1","rateDate":"2016-12-26 18:23:03","reply":"","sellerId":1710401270,"serviceRateContent":"","structuredRateList":[],"tamllSweetLevel":3,"tmallSweetPic":"tmall-grade-t3-18.png","tradeEndTime":1482747757000,"tradeId":"","useful":true,"userIdEncryption":"","userInfo":"","userVipLevel":0,"userVipPic":""},{"aliMallSeller":false,"anony":true,"appendComment":"","attributes":"","attributesMap":"","aucNumId":"","auctionPicUrl":"","auctionPrice":"","auctionSku":"\xbb\xfa\xc9\xed\xd1\xd5\xc9\xab:\xbd\xf0\xc9\xab;\xcc\xd7\xb2\xcd\xc0\xe0\xd0\xcd:\xb9\xd9\xb7\xbd\xb1\xea\xc5\xe4;\xb4\xe6\xb4\xa2\xc8\xdd\xc1\xbf:32MB;\xb0\xe6\xb1\xbe\xc0\xe0\xd0\xcd:\xd6\xd0\xb9\xfa\xb4\xf3\xc2\xbd","auctionTitle":"","buyCount":0,"carServiceLocation":"","cmsSource":"\xcc\xec\xc3\xa8","displayRatePic":"","displayRateSum":0,"displayUserLink":"","displayUserNick":"\xb2\xbb***6","displayUserNumId":"","displayUserRateLink":"","dsr":0.0,"fromMall":true,"fromMemory":0,"gmtCreateTime":1483009229000,"id":297501299434,"pics":"","picsSmall":"","position":"721-11-5,10;620-11-0,4;920-11-11,13;","rateContent":"\xd6\xca\xc1\xbf\xb2\xbb\xb4\xed\xa3\xac\xca\xd6\xb8\xd0\xbb\xb9\xbf\xc9\xd2\xd4\xa3\xac\xba\xc3\xc6\xc0\xa1\xa3\xbb\xb9\xc3\xbb\xbf\xaa\xca\xbc\xd3\xc3","rateDate":"2016-12-29 19:00:29","reply":"","sellerId":1710401270,"serviceRateContent":"","structuredRateList":[],"tamllSweetLevel":0,"tmallSweetPic":"","tradeEndTime":1483008924000,"tradeId":"","useful":true,"userIdEncryption":"","userInfo":"","userVipLevel":0,"userVipPic":""},{"aliMallSeller":false,"anony":true,"appendComment":"","attributes":"","attributesMap":"","aucNumId":"","auctionPicUrl":"","auctionPrice":"","auctionSku":"\xbb\xfa\xc9\xed\xd1\xd5\xc9\xab:\xbd\xf0\xc9\xab;\xcc\xd7\xb2\xcd\xc0\xe0\xd0\xcd:\xb9\xd9\xb7\xbd\xb1\xea\xc5\xe4;\xb4\xe6\xb4\xa2\xc8\xdd\xc1\xbf:16MB;\xb0\xe6\xb1\xbe\xc0\xe0\xd0\xcd:\xd6\xd0\xb9\xfa\xb4\xf3\xc2\xbd","auctionTitle":"","buyCount":0,"carServiceLocation":"","cmsSource":"\xcc\xec\xc3\xa8","displayRatePic":"","displayRateSum":0,"displayUserLink":"","displayUserNick":"t***2","displayUserNumId":"","displayUserRateLink":"","dsr":0.0,"fromMall":true,"fromMemory":0,"gmtCreateTime":1481471153000,"id":295084923869,"pics":"","picsSmall":"","position":"620-11-9,13;10420-11-0,3;920-11-14,18;420-11-4,8;","rateContent":"\xb7\xa2\xbb\xf5\xbf\xec\xa3\xac\xce\xef\xc1\xf7\xd5\xfd\xb3\xa3\xa3\xac\xb6\xab\xce\xf7\xbb\xb9\xd0\xd0\xa3\xac\xd2\xbb\xc7\xd0\xd5\xfd\xb3\xa3\xa3\xac\xcf\xa3\xcd\xfb\xc4\xcd\xd3\xc3\xa3\xac\xd7\xee\xba\xf3\xd7\xa3\xc0\xcf\xb0\xe5\xc9\xfa\xd2\xe2\xd0\xcb\xc2\xa1","rateDate":"2016-12-11 23:45:53","reply":"","sellerId":1710401270,"serviceRateContent":"","structuredRateList":[],"tamllSweetLevel":3,"tmallSweetPic":"tmall-grade-t3-18.png","tradeEndTime":1481471057000,"tradeId":"","useful":true,"userIdEncryption":"","userInfo":"","userVipLevel":0,"userVipPic":""},{"aliMallSeller":false,"anony":true,"appendComment":"","attributes":"","attributesMap":"","aucNumId":"","auctionPicUrl":"","auctionPrice":"","auctionSku":"\xbb\xfa\xc9\xed\xd1\xd5\xc9\xab:\xba\xec\xc9\xab;\xcc\xd7\xb2\xcd\xc0\xe0\xd0\xcd:\xcc\xd7\xb2\xcd\xb6\xfe;\xb4\xe6\xb4\xa2\xc8\xdd\xc1\xbf:32MB;\xb0\xe6\xb1\xbe\xc0\xe0\xd0\xcd:\xd6\xd0\xb9\xfa\xb4\xf3\xc2\xbd","auctionTitle":"","buyCount":0,"carServiceLocation":"","cmsSource":"\xcc\xec\xc3\xa8","displayRatePic":"","displayRateSum":0,"displayUserLink":"","displayUserNick":"k***j","displayUserNumId":"","displayUserRateLink":"","dsr":0.0,"fromMall":true,"fromMemory":0,"gmtCreateTime":1482715733000,"id":296722723108,"pics":"","picsSmall":"","position":"920-13-5,8;620-13-0,4;620-13-9,12;","rateContent":"\xc0\xac\xbb\xf8\xca\xd6\xbb\xfa,\xb2\xbb\xba\xc3\xd3\xc3\xa1\xa3\xd6\xca\xc1\xbf\xb2\xee\xa1\xa3","rateDate":"2016-12-26 09:28:53","reply":"","sellerId":1710401270,"serviceRateContent":"","structuredRateList":[],"tamllSweetLevel":2,"tmallSweetPic":"tmall-grade-t2-18.png","tradeEndTime":1481967107000,"tradeId":"","useful":true,"userIdEncryption":"","userInfo":"","userVipLevel":0,"userVipPic":""},{"aliMallSeller":false,"anony":true,"appendComment":"","attributes":"","attributesMap":"","aucNumId":"","auctionPicUrl":"","auctionPrice":"","auctionSku":"\xbb\xfa\xc9\xed\xd1\xd5\xc9\xab:\xb0\xd7\xc9\xab;\xcc\xd7\xb2\xcd\xc0\xe0\xd0\xcd:\xb9\xd9\xb7\xbd\xb1\xea\xc5\xe4;\xb4\xe6\xb4\xa2\xc8\xdd\xc1\xbf:32MB;\xb0\xe6\xb1\xbe\xc0\xe0\xd0\xcd:\xd6\xd0\xb9\xfa\xb4\xf3\xc2\xbd","auctionTitle":"","buyCount":0,"carServiceLocation":"","cmsSource":"\xcc\xec\xc3\xa8","displayRatePic":"","displayRateSum":0,"displayUserLink":"","displayUserNick":"\xc7\xc9***3","displayUserNumId":"","displayUserRateLink":"","dsr":0.0,"fromMall":true,"fromMemory":0,"gmtCreateTime":1481190621000,"id":294901994904,"pics":"","picsSmall":"","position":"920-11-0,4;920-11-5,10;","rateContent":"\xd3\xc3\xd7\xc5\xb2\xbb\xb4\xed\xa3\xac\xb0\xd6\xb0\xd6\xcd\xa6\xcf\xb2\xbb\xb6","rateDate":"2016-12-08 17:50:21","reply":"","sellerId":1710401270,"serviceRateContent":"","structuredRateList":[],"tamllSweetLevel":3,"tmallSweetPic":"tmall-grade-t3-18.png","tradeEndTime":1481018884000,"tradeId":"","useful":true,"userIdEncryption":"","userInfo":"","userVipLevel":0,"userVipPic":""},{"aliMallSeller":false,"anony":false,"appendComment":"","attributes":"","attributesMap":"","aucNumId":"","auctionPicUrl":"","auctionPrice":"","auctionSku":"\xbb\xfa\xc9\xed\xd1\xd5\xc9\xab:\xba\xec\xc9\xab;\xcc\xd7\xb2\xcd\xc0\xe0\xd0\xcd:\xb9\xd9\xb7\xbd\xb1\xea\xc5\xe4;\xb4\xe6\xb4\xa2\xc8\xdd\xc1\xbf:32MB;\xb0\xe6\xb1\xbe\xc0\xe0\xd0\xcd:\xd6\xd0\xb9\xfa\xb4\xf3\xc2\xbd","auctionTitle":"","buyCount":0,"carServiceLocation":"","cmsSource":"\xcc\xec\xc3\xa8","displayRatePic":"","displayRateSum":0,"displayUserLink":"","displayUserNick":"d***5","displayUserNumId":"","displayUserRateLink":"","dsr":0.0,"fromMall":true,"fromMemory":0,"gmtCreateTime":1482561626000,"id":296566764759,"pics":"","picsSmall":"","position":"30221-11-0,4;920-12-5,6;","rateContent":"\xc9\xf9\xd2\xf4\xc7\xe5\xce\xfa\xa3\xac\xb4\xf3&hellip;&hellip;","rateDate":"2016-12-24 14:40:26","reply":"","sellerId":1710401270,"serviceRateContent":"","structuredRateList":[],"tamllSweetLevel":2,"tmallSweetPic":"tmall-grade-t2-18.png","tradeEndTime":1482482592000,"tradeId":"","useful":true,"userIdEncryption":"","userInfo":"","userVipLevel":0,"userVipPic":""},{"aliMallSeller":false,"anony":true,"appendComment":"","attributes":"","attributesMap":"","aucNumId":"","auctionPicUrl":"","auctionPrice":"","auctionSku":"\xbb\xfa\xc9\xed\xd1\xd5\xc9\xab:\xb7\xdb\xc9\xab;\xcc\xd7\xb2\xcd\xc0\xe0\xd0\xcd:\xb9\xd9\xb7\xbd\xb1\xea\xc5\xe4;\xb4\xe6\xb4\xa2\xc8\xdd\xc1\xbf:32MB;\xb0\xe6\xb1\xbe\xc0\xe0\xd0\xcd:\xd6\xd0\xb9\xfa\xb4\xf3\xc2\xbd","auctionTitle":"","buyCount":0,"carServiceLocation":"","cmsSource":"\xcc\xec\xc3\xa8","displayRatePic":"","displayRateSum":0,"displayUserLink":"","displayUserNick":"\xce\xf7***\xb4\xf3","displayUserNumId":"","displayUserRateLink":"","dsr":0.0,"fromMall":true,"fromMemory":0,"gmtCreateTime":1482809803000,"id":296993486445,"pics":"","picsSmall":"","position":"30221-13-0,6;","rateContent":"\xc0\xae\xb0\xc8\xd4\xd3\xd2\xf4\xcc\xab\xb4\xf3\xa1\xa3","rateDate":"2016-12-27 11:36:43","reply":"","sellerId":1710401270,"serviceRateContent":"","structuredRateList":[],"tamllSweetLevel":0,"tmallSweetPic":"","tradeEndTime":1482720448000,"tradeId":"","useful":true,"userIdEncryption":"","userInfo":"","userVipLevel":0,"userVipPic":""},{"aliMallSeller":false,"anony":true,"appendComment":"","attributes":"","attributesMap":"","aucNumId":"","auctionPicUrl":"","auctionPrice":"","auctionSku":"\xbb\xfa\xc9\xed\xd1\xd5\xc9\xab:\xb0\xd7\xc9\xab;\xcc\xd7\xb2\xcd\xc0\xe0\xd0\xcd:\xb9\xd9\xb7\xbd\xb1\xea\xc5\xe4;\xb4\xe6\xb4\xa2\xc8\xdd\xc1\xbf:16MB;\xb0\xe6\xb1\xbe\xc0\xe0\xd0\xcd:\xd6\xd0\xb9\xfa\xb4\xf3\xc2\xbd","auctionTitle":"","buyCount":0,"carServiceLocation":"","cmsSource":"\xcc\xec\xc3\xa8","displayRatePic":"","displayRateSum":0,"displayUserLink":"","displayUserNick":"x***x","displayUserNumId":"","displayUserRateLink":"","dsr":0.0,"fromMall":true,"fromMemory":0,"gmtCreateTime":1481938221000,"id":295812328618,"pics":"","picsSmall":"","position":"920-11-0,2;","rateContent":"\xcd\xa6\xba\xc3 \xd2\xbb\xb0\xe3 \xcd\xa6\xba\xc3 \xcd\xa6\xba\xc3","rateDate":"2016-12-17 09:30:21","reply":"","sellerId":1710401270,"serviceRateContent":"","structuredRateList":[],"tamllSweetLevel":3,"tmallSweetPic":"tmall-grade-t3-18.png","tradeEndTime":1481938160000,"tradeId":"","useful":true,"userIdEncryption":"","userInfo":"","userVipLevel":0,"userVipPic":""},{"aliMallSeller":false,"anony":false,"appendComment":"","attributes":"","attributesMap":"","aucNumId":"","auctionPicUrl":"","auctionPrice":"","auctionSku":"\xbb\xfa\xc9\xed\xd1\xd5\xc9\xab:\xba\xec\xc9\xab;\xcc\xd7\xb2\xcd\xc0\xe0\xd0\xcd:\xb9\xd9\xb7\xbd\xb1\xea\xc5\xe4;\xb4\xe6\xb4\xa2\xc8\xdd\xc1\xbf:32MB;\xb0\xe6\xb1\xbe\xc0\xe0\xd0\xcd:\xd6\xd0\xb9\xfa\xb4\xf3\xc2\xbd","auctionTitle":"","buyCount":0,"carServiceLocation":"","cmsSource":"\xcc\xec\xc3\xa8","displayRatePic":"","displayRateSum":0,"displayUserLink":"","displayUserNick":"c***1","displayUserNumId":"","displayUserRateLink":"","dsr":0.0,"fromMall":true,"fromMemory":0,"gmtCreateTime":1482820101000,"id":297105412311,"pics":"","picsSmall":"","position":"920-11-0,6;","rateContent":"\xc0\xcf\xc8\xcb\xbc\xd2\xba\xdc\xcf\xb2\xbb\xb6","rateDate":"2016-12-27 14:28:21","reply":"","sellerId":1710401270,"serviceRateContent":"","structuredRateList":[],"tamllSweetLevel":2,"tmallSweetPic":"tmall-grade-t2-18.png","tradeEndTime":1481703205000,"tradeId":"","useful":true,"userIdEncryption":"","userInfo":"","userVipLevel":0,"userVipPic":""},{"aliMallSeller":false,"anony":true,"appendComment":"","attributes":"","attributesMap":"","aucNumId":"","auctionPicUrl":"","auctionPrice":"","auctionSku":"\xbb\xfa\xc9\xed\xd1\xd5\xc9\xab:\xba\xec\xc9\xab;\xcc\xd7\xb2\xcd\xc0\xe0\xd0\xcd:\xb9\xd9\xb7\xbd\xb1\xea\xc5\xe4;\xb4\xe6\xb4\xa2\xc8\xdd\xc1\xbf:16MB;\xb0\xe6\xb1\xbe\xc0\xe0\xd0\xcd:\xd6\xd0\xb9\xfa\xb4\xf3\xc2\xbd","auctionTitle":"","buyCount":0,"carServiceLocation":"","cmsSource":"\xcc\xec\xc3\xa8","displayRatePic":"","displayRateSum":0,"displayUserLink":"","displayUserNick":"\xc2\xb7***0","displayUserNumId":"","displayUserRateLink":"","dsr":0.0,"fromMall":true,"fromMemory":0,"gmtCreateTime":1481630800000,"id":295495274414,"pics":"","picsSmall":"","position":"","rateContent":"\xd3\xd0\xb5\xe3\xd1\xd5\xc9\xab\xc3\xbb\xd3\xd0","rateDate":"2016-12-13 20:06:40","reply":"","sellerId":1710401270,"serviceRateContent":"","structuredRateList":[],"tamllSweetLevel":0,"tmallSweetPic":"","tradeEndTime":1481538593000,"tradeId":"","useful":true,"userIdEncryption":"","userInfo":"","userVipLevel":0,"userVipPic":""},{"aliMallSeller":false,"anony":true,"appendComment":"","attributes":"","attributesMap":"","aucNumId":"","auctionPicUrl":"","auctionPrice":"","auctionSku":"\xbb\xfa\xc9\xed\xd1\xd5\xc9\xab:\xba\xda\xc9\xab;\xcc\xd7\xb2\xcd\xc0\xe0\xd0\xcd:\xb9\xd9\xb7\xbd\xb1\xea\xc5\xe4;\xb4\xe6\xb4\xa2\xc8\xdd\xc1\xbf:16MB;\xb0\xe6\xb1\xbe\xc0\xe0\xd0\xcd:\xd6\xd0\xb9\xfa\xb4\xf3\xc2\xbd","auctionTitle":"","buyCount":0,"carServiceLocation":"","cmsSource":"\xcc\xec\xc3\xa8","displayRatePic":"","displayRateSum":0,"displayUserLink":"","displayUserNick":"\xca\xc7***\xd0\xc4","displayUserNumId":"","displayUserRateLink":"","dsr":0.0,"fromMall":true,"fromMemory":0,"gmtCreateTime":1481119769000,"id":294997961946,"pics":"","picsSmall":"","position":"920-11-0,5;920-11-9,11;920-12-6,8;","rateContent":"\xbc\xd2\xc8\xcb\xba\xdc\xcf\xb2\xbb\xb6\xa3\xac\xd7\xd6\xb4\xf3\xa3\xac\xc7\xe5\xce\xfa","rateDate":"2016-12-07 22:09:29","reply":"","sellerId":1710401270,"serviceRateContent":"","structuredRateList":[],"tamllSweetLevel":0,"tmallSweetPic":"","tradeEndTime":1481119676000,"tradeId":"","useful":true,"userIdEncryption":"","userInfo":"","userVipLevel":0,"userVipPic":""},{"aliMallSeller":false,"anony":true,"appendComment":"","attributes":"","attributesMap":"","aucNumId":"","auctionPicUrl":"","auctionPrice":"","auctionSku":"\xbb\xfa\xc9\xed\xd1\xd5\xc9\xab:\xbd\xf0\xc9\xab;\xcc\xd7\xb2\xcd\xc0\xe0\xd0\xcd:\xb9\xd9\xb7\xbd\xb1\xea\xc5\xe4;\xb4\xe6\xb4\xa2\xc8\xdd\xc1\xbf:32MB;\xb0\xe6\xb1\xbe\xc0\xe0\xd0\xcd:\xd6\xd0\xb9\xfa\xb4\xf3\xc2\xbd","auctionTitle":"","buyCount":0,"carServiceLocation":"","cmsSource":"\xcc\xec\xc3\xa8","displayRatePic":"","displayRateSum":0,"displayUserLink":"","displayUserNick":"t***7","displayUserNumId":"","displayUserRateLink":"","dsr":0.0,"fromMall":true,"fromMemory":0,"gmtCreateTime":1482591513000,"id":296780370105,"pics":"","picsSmall":"","position":"920-11-7,12;","rateContent":"\xb0\xef\xb1\xf0\xc8\xcb\xc2\xf2\xb5\xc4  \xcb\xb5\xca\xc7\xba\xdc\xba\xc3\xd3\xc3","rateDate":"2016-12-24 22:58:33","reply":"","sellerId":1710401270,"serviceRateContent":"","structuredRateList":[],"tamllSweetLevel":0,"tmallSweetPic":"","tradeEndTime":1482220551000,"tradeId":"","useful":true,"userIdEncryption":"","userInfo":"","userVipLevel":0,"userVipPic":""},{"aliMallSeller":false,"anony":true,"appendComment":"","attributes":"","attributesMap":"","aucNumId":"","auctionPicUrl":"","auctionPrice":"","auctionSku":"\xbb\xfa\xc9\xed\xd1\xd5\xc9\xab:\xba\xda\xc9\xab;\xcc\xd7\xb2\xcd\xc0\xe0\xd0\xcd:\xb9\xd9\xb7\xbd\xb1\xea\xc5\xe4;\xb4\xe6\xb4\xa2\xc8\xdd\xc1\xbf:32MB;\xb0\xe6\xb1\xbe\xc0\xe0\xd0\xcd:\xd6\xd0\xb9\xfa\xb4\xf3\xc2\xbd","auctionTitle":"","buyCount":0,"carServiceLocation":"","cmsSource":"\xcc\xec\xc3\xa8","displayRatePic":"","displayRateSum":0,"displayUserLink":"","displayUserNick":"\xd5\xe6***\xb5\xea","displayUserNumId":"","displayUserRateLink":"","dsr":0.0,"fromMall":true,"fromMemory":0,"gmtCreateTime":1481439656000,"id":295190929488,"pics":"","picsSmall":"","position":"920-11-0,3;920-11-16,17;920-11-14,15;920-11-11,13;921-11-4,6;920-11-7,10;","rateContent":"\xcd\xa6\xba\xc3\xb5\xc4 \xba\xdc\xbf\xec \xbb\xb9\xd0\xd0\xb0\xc9 \xba\xdc\xba\xc3 \xba\xc3 \xba\xc3","rateDate":"2016-12-11 15:00:56","reply":"","sellerId":1710401270,"serviceRateContent":"","structuredRateList":[],"tamllSweetLevel":0,"tmallSweetPic":"","tradeEndTime":1481277752000,"tradeId":"","useful":true,"userIdEncryption":"","userInfo":"","userVipLevel":0,"userVipPic":""},{"aliMallSeller":false,"anony":true,"appendComment":"","attributes":"","attributesMap":"","aucNumId":"","auctionPicUrl":"","auctionPrice":"","auctionSku":"\xbb\xfa\xc9\xed\xd1\xd5\xc9\xab:\xb7\xdb\xc9\xab;\xcc\xd7\xb2\xcd\xc0\xe0\xd0\xcd:\xcc\xd7\xb2\xcd\xc8\xfd;\xb4\xe6\xb4\xa2\xc8\xdd\xc1\xbf:32MB;\xb0\xe6\xb1\xbe\xc0\xe0\xd0\xcd:\xd6\xd0\xb9\xfa\xb4\xf3\xc2\xbd","auctionTitle":"","buyCount":0,"carServiceLocation":"","cmsSource":"\xcc\xec\xc3\xa8","displayRatePic":"","displayRateSum":0,"displayUserLink":"","displayUserNick":"f***6","displayUserNumId":"","displayUserRateLink":"","dsr":0.0,"fromMall":true,"fromMemory":0,"gmtCreateTime":1481111997000,"id":294928253265,"pics":"","picsSmall":"","position":"620-12-0,5;920-11-6,9;","rateContent":"\xb6\xab\xce\xf7\xca\xd5\xb5\xbd\xc1\xcb\xa3\xac\xba\xdc\xba\xc3\xc5\xb6\xa1\xa3","rateDate":"2016-12-07 19:59:57","reply":"","sellerId":1710401270,"serviceRateContent":"","structuredRateList":[],"tamllSweetLevel":0,"tmallSweetPic":"","tradeEndTime":1481111954000,"tradeId":"","useful":true,"userIdEncryption":"","userInfo":"","userVipLevel":0,"userVipPic":""},{"aliMallSeller":false,"anony":false,"appendComment":"","attributes":"","attributesMap":"","aucNumId":"","auctionPicUrl":"","auctionPrice":"","auctionSku":"\xbb\xfa\xc9\xed\xd1\xd5\xc9\xab:\xbd\xf0\xc9\xab;\xcc\xd7\xb2\xcd\xc0\xe0\xd0\xcd:\xcc\xd7\xb2\xcd\xd2\xbb;\xb4\xe6\xb4\xa2\xc8\xdd\xc1\xbf:32MB;\xb0\xe6\xb1\xbe\xc0\xe0\xd0\xcd:\xd6\xd0\xb9\xfa\xb4\xf3\xc2\xbd","auctionTitle":"","buyCount":0,"carServiceLocation":"","cmsSource":"\xcc\xec\xc3\xa8","displayRatePic":"","displayRateSum":0,"displayUserLink":"","displayUserNick":"c***4","displayUserNumId":"","displayUserRateLink":"","dsr":0.0,"fromMall":true,"fromMemory":0,"gmtCreateTime":1481862255000,"id":295958294989,"pics":"","picsSmall":"","position":"920-11-0,2;920-11-10,15;420-11-3,9;","rateContent":"\xba\xdc\xba\xc3\xa3\xac\xce\xef\xc1\xf7\xd2\xb2\xba\xdc\xb8\xf8\xc1\xa6\xa3\xac\xc0\xcf\xb0\xd6\xba\xdc\xcf\xb2\xbb\xb6\xa3\xa1","rateDate":"2016-12-16 12:24:15","reply":"","sellerId":1710401270,"serviceRateContent":"","structuredRateList":[],"tamllSweetLevel":3,"tmallSweetPic":"tmall-grade-t3-18.png","tradeEndTime":1481862192000,"tradeId":"","useful":true,"userIdEncryption":"","userInfo":"","userVipLevel":0,"userVipPic":""},{"aliMallSeller":false,"anony":false,"appendComment":"","attributes":"","attributesMap":"","aucNumId":"","auctionPicUrl":"","auctionPrice":"","auctionSku":"\xbb\xfa\xc9\xed\xd1\xd5\xc9\xab:\xbd\xf0\xc9\xab;\xcc\xd7\xb2\xcd\xc0\xe0\xd0\xcd:\xcc\xd7\xb2\xcd\xd2\xbb;\xb4\xe6\xb4\xa2\xc8\xdd\xc1\xbf:32MB;\xb0\xe6\xb1\xbe\xc0\xe0\xd0\xcd:\xd6\xd0\xb9\xfa\xb4\xf3\xc2\xbd","auctionTitle":"","buyCount":0,"carServiceLocation":"","cmsSource":"\xcc\xec\xc3\xa8","displayRatePic":"","displayRateSum":0,"displayUserLink":"","displayUserNick":"a***7","displayUserNumId":"","displayUserRateLink":"","dsr":0.0,"fromMall":true,"fromMemory":0,"gmtCreateTime":1482063858000,"id":296182068699,"pics":"","picsSmall":"","position":"920-11-0,3;921-11-4,10;","rateContent":"\xbb\xb9\xb2\xbb\xb4\xed\xa3\xac\xcb\xcd\xbb\xf5\xcb\xd9\xb6\xc8\xd5\xfd\xb3\xa3","rateDate":"2016-12-18 20:24:18","reply":"","sellerId":1710401270,"serviceRateContent":"","structuredRateList":[],"tamllSweetLevel":2,"tmallSweetPic":"tmall-grade-t2-18.png","tradeEndTime":1481942779000,"tradeId":"","useful":true,"userIdEncryption":"","userInfo":"","userVipLevel":0,"userVipPic":""}],"searchinfo":"","tags":""}})'