b'\r\n\r\n\njsonp753({"rateDetail":{"paginator":{"items":1071,"lastPage":54,"page":54},"rateCount":{"picNum":211,"shop":0,"total":1242,"used":82},"rateDanceInfo":{"currentMilles":1492167888109,"intervalMilles":5716252199,"showChooseTopic":false,"storeType":4},"rateList":[{"aliMallSeller":false,"anony":true,"appendComment":"","attributes":"","attributesMap":"","aucNumId":"","auctionPicUrl":"","auctionPrice":"","auctionSku":"\xbb\xfa\xc9\xed\xd1\xd5\xc9\xab:\xba\xda\xc9\xab;\xcc\xd7\xb2\xcd\xc0\xe0\xd0\xcd:\xb9\xd9\xb7\xbd\xb1\xea\xc5\xe4;\xb4\xe6\xb4\xa2\xc8\xdd\xc1\xbf:32MB;\xb0\xe6\xb1\xbe\xc0\xe0\xd0\xcd:\xd6\xd0\xb9\xfa\xb4\xf3\xc2\xbd","auctionTitle":"","buyCount":0,"carServiceLocation":"","cmsSource":"\xcc\xec\xc3\xa8","displayRatePic":"","displayRateSum":0,"displayUserLink":"","displayUserNick":"\xb8\xbb***3","displayUserNumId":"","displayUserRateLink":"","dsr":0.0,"fromMall":true,"fromMemory":0,"gmtCreateTime":1490538164000,"id":305086697472,"pics":["//img.alicdn.com/bao/uploaded/i2/1199906001759665032/TB2.KC9jl8lpuFjSspaXXXJKpXa_!!0-rate.jpg"],"picsSmall":"","position":"","rateContent":"\xb4\xcb\xd3\xc3\xbb\xa7\xc3\xbb\xd3\xd0\xcc\xee\xd0\xb4\xc6\xc0\xc2\xdb!","rateDate":"2017-03-26 22:22:44","reply":"","sellerId":1710401270,"serviceRateContent":"","structuredRateList":[],"tamllSweetLevel":0,"tmallSweetPic":"","tradeEndTime":1490538063000,"tradeId":"","useful":true,"userIdEncryption":"","userInfo":"","userVipLevel":0,"userVipPic":""},{"aliMallSeller":false,"anony":true,"appendComment":"","attributes":"","attributesMap":"","aucNumId":"","auctionPicUrl":"","auctionPrice":"","auctionSku":"\xbb\xfa\xc9\xed\xd1\xd5\xc9\xab:\xb0\xd7\xc9\xab;\xcc\xd7\xb2\xcd\xc0\xe0\xd0\xcd:\xb9\xd9\xb7\xbd\xb1\xea\xc5\xe4;\xb4\xe6\xb4\xa2\xc8\xdd\xc1\xbf:32MB;\xb0\xe6\xb1\xbe\xc0\xe0\xd0\xcd:\xd6\xd0\xb9\xfa\xb4\xf3\xc2\xbd","auctionTitle":"","buyCount":0,"carServiceLocation":"","cmsSource":"\xcc\xec\xc3\xa8","displayRatePic":"","displayRateSum":0,"displayUserLink":"","displayUserNick":"\xcd\xf5***8","displayUserNumId":"","displayUserRateLink":"","dsr":0.0,"fromMall":true,"fromMemory":0,"gmtCreateTime":1488286882000,"id":302522903318,"pics":["//img.alicdn.com/bao/uploaded/i2/1727805017892236057/TB25Qpif9BjpuFjSsplXXa5MVXa_!!0-rate.jpg"],"picsSmall":"","position":"","rateContent":"\xb4\xcb\xd3\xc3\xbb\xa7\xc3\xbb\xd3\xd0\xcc\xee\xd0\xb4\xc6\xc0\xc2\xdb!","rateDate":"2017-02-28 21:01:22","reply":"","sellerId":1710401270,"serviceRateContent":"","structuredRateList":[],"tamllSweetLevel":0,"tmallSweetPic":"","tradeEndTime":1488286749000,"tradeId":"","useful":true,"userIdEncryption":"","userInfo":"","userVipLevel":0,"userVipPic":""},{"aliMallSeller":false,"anony":true,"appendComment":"","attributes":"","attributesMap":"","aucNumId":"","auctionPicUrl":"","auctionPrice":"","auctionSku":"\xbb\xfa\xc9\xed\xd1\xd5\xc9\xab:\xba\xec\xc9\xab;\xcc\xd7\xb2\xcd\xc0\xe0\xd0\xcd:\xb9\xd9\xb7\xbd\xb1\xea\xc5\xe4;\xb4\xe6\xb4\xa2\xc8\xdd\xc1\xbf:32MB;\xb0\xe6\xb1\xbe\xc0\xe0\xd0\xcd:\xd6\xd0\xb9\xfa\xb4\xf3\xc2\xbd","auctionTitle":"","buyCount":0,"carServiceLocation":"","cmsSource":"\xcc\xec\xc3\xa8","displayRatePic":"","displayRateSum":0,"displayUserLink":"","displayUserNick":"\xd1\xdb***\xc6\xac","displayUserNumId":"","displayUserRateLink":"","dsr":0.0,"fromMall":true,"fromMemory":0,"gmtCreateTime":1492126788000,"id":307149973251,"pics":"","picsSmall":"","position":"","rateContent":"\xb2\xbb\xb4\xed\xa3\xac\xc9\xf9\xd2\xf4\xb4\xf3!\xb5\xe7\xb3\xd8\xba\xdc\xc4\xcd\xd3\xc3\xa3\xa1","rateDate":"2017-04-14 07:39:48","reply":"","sellerId":1710401270,"serviceRateContent":"","structuredRateList":[],"tamllSweetLevel":1,"tmallSweetPic":"tmall-grade-t1-18.png","tradeEndTime":1491555579000,"tradeId":"","useful":true,"userIdEncryption":"","userInfo":"","userVipLevel":0,"userVipPic":""},{"aliMallSeller":false,"anony":true,"appendComment":"","attributes":"","attributesMap":"","aucNumId":"","auctionPicUrl":"","auctionPrice":"","auctionSku":"\xbb\xfa\xc9\xed\xd1\xd5\xc9\xab:\xba\xec\xc9\xab;\xcc\xd7\xb2\xcd\xc0\xe0\xd0\xcd:\xb9\xd9\xb7\xbd\xb1\xea\xc5\xe4;\xb4\xe6\xb4\xa2\xc8\xdd\xc1\xbf:32MB;\xb0\xe6\xb1\xbe\xc0\xe0\xd0\xcd:\xd6\xd0\xb9\xfa\xb4\xf3\xc2\xbd","auctionTitle":"","buyCount":0,"carServiceLocation":"","cmsSource":"\xcc\xec\xc3\xa8","displayRatePic":"","displayRateSum":0,"displayUserLink":"","displayUserNick":"0***\xbb\xb0","displayUserNumId":"","displayUserRateLink":"","dsr":0.0,"fromMall":true,"fromMemory":0,"gmtCreateTime":1492134824000,"id":307161093240,"pics":"","picsSmall":"","position":"","rateContent":"\xc0\xd1\xc0\xd1\xba\xdc\xcf\xb2\xbb\xb6\xa3\xac\xc9\xf9\xd2\xf4\xd2\xb2\xba\xdc\xb4\xf3\xa3\xac\xc3\xbb\xd3\xd0\xd4\xd3\xd2\xf4\xa3\xac\xba\xc3\xc6\xc0\xa3\xa1","rateDate":"2017-04-14 09:53:44","reply":"","sellerId":1710401270,"serviceRateContent":"","structuredRateList":[],"tamllSweetLevel":0,"tmallSweetPic":"","tradeEndTime":1491913761000,"tradeId":"","useful":true,"userIdEncryption":"","userInfo":"","userVipLevel":0,"userVipPic":""},{"aliMallSeller":false,"anony":true,"appendComment":"","attributes":"","attributesMap":"","aucNumId":"","auctionPicUrl":"","auctionPrice":"","auctionSku":"\xbb\xfa\xc9\xed\xd1\xd5\xc9\xab:\xba\xda\xc9\xab;\xcc\xd7\xb2\xcd\xc0\xe0\xd0\xcd:\xb9\xd9\xb7\xbd\xb1\xea\xc5\xe4;\xb4\xe6\xb4\xa2\xc8\xdd\xc1\xbf:32MB;\xb0\xe6\xb1\xbe\xc0\xe0\xd0\xcd:\xd6\xd0\xb9\xfa\xb4\xf3\xc2\xbd","auctionTitle":"","buyCount":0,"carServiceLocation":"","cmsSource":"\xcc\xec\xc3\xa8","displayRatePic":"","displayRateSum":0,"displayUserLink":"","displayUserNick":"\xd5\xc5***3","displayUserNumId":"","displayUserRateLink":"","dsr":0.0,"fromMall":true,"fromMemory":0,"gmtCreateTime":1492131344000,"id":307139339254,"pics":"","picsSmall":"","position":"","rateContent":"\xcd\xa6\xba\xc3\xb5\xc4","rateDate":"2017-04-14 08:55:44","reply":"","sellerId":1710401270,"serviceRateContent":"","structuredRateList":[],"tamllSweetLevel":0,"tmallSweetPic":"","tradeEndTime":1492131318000,"tradeId":"","useful":true,"userIdEncryption":"","userInfo":"","userVipLevel":0,"userVipPic":""},{"aliMallSeller":false,"anony":true,"appendComment":"","attributes":"","attributesMap":"","aucNumId":"","auctionPicUrl":"","auctionPrice":"","auctionSku":"\xbb\xfa\xc9\xed\xd1\xd5\xc9\xab:\xba\xda\xc9\xab;\xcc\xd7\xb2\xcd\xc0\xe0\xd0\xcd:\xb9\xd9\xb7\xbd\xb1\xea\xc5\xe4;\xb4\xe6\xb4\xa2\xc8\xdd\xc1\xbf:32MB;\xb0\xe6\xb1\xbe\xc0\xe0\xd0\xcd:\xd6\xd0\xb9\xfa\xb4\xf3\xc2\xbd","auctionTitle":"","buyCount":0,"carServiceLocation":"","cmsSource":"\xcc\xec\xc3\xa8","displayRatePic":"","displayRateSum":0,"displayUserLink":"","displayUserNick":"a***6","displayUserNumId":"","displayUserRateLink":"","dsr":0.0,"fromMall":true,"fromMemory":0,"gmtCreateTime":1492130934000,"id":307350361603,"pics":"","picsSmall":"","position":"","rateContent":"\xbb\xb9\xba\xc3","rateDate":"2017-04-14 08:48:54","reply":"","sellerId":1710401270,"serviceRateContent":"","structuredRateList":[],"tamllSweetLevel":0,"tmallSweetPic":"","tradeEndTime":1492130907000,"tradeId":"","useful":true,"userIdEncryption":"","userInfo":"","userVipLevel":0,"userVipPic":""},{"aliMallSeller":false,"anony":true,"appendComment":"","attributes":"","attributesMap":"","aucNumId":"","auctionPicUrl":"","auctionPrice":"","auctionSku":"\xbb\xfa\xc9\xed\xd1\xd5\xc9\xab:\xba\xda\xc9\xab;\xcc\xd7\xb2\xcd\xc0\xe0\xd0\xcd:\xb9\xd9\xb7\xbd\xb1\xea\xc5\xe4;\xb4\xe6\xb4\xa2\xc8\xdd\xc1\xbf:32MB;\xb0\xe6\xb1\xbe\xc0\xe0\xd0\xcd:\xd6\xd0\xb9\xfa\xb4\xf3\xc2\xbd","auctionTitle":"","buyCount":0,"carServiceLocation":"","cmsSource":"\xcc\xec\xc3\xa8","displayRatePic":"","displayRateSum":0,"displayUserLink":"","displayUserNick":"\xd0\xa1***8","displayUserNumId":"","displayUserRateLink":"","dsr":0.0,"fromMall":true,"fromMemory":0,"gmtCreateTime":1492144861000,"id":307354134624,"pics":"","picsSmall":"","position":"","rateContent":"\xcd\xa6\xba\xc3\xd3\xc3   \xcb\xe4\xc8\xbb\xb5\xe7\xb3\xd8\xbf\xb4\xc6\xf0\xc0\xb4\xd0\xa1\xb5\xab\xca\xc7\xb4\xfd\xbb\xfa\xcd\xa6\xb2\xbb\xb4\xed\xb5\xc4","rateDate":"2017-04-14 12:41:01","reply":"","sellerId":1710401270,"serviceRateContent":"","structuredRateList":[],"tamllSweetLevel":0,"tmallSweetPic":"","tradeEndTime":1492082125000,"tradeId":"","useful":true,"userIdEncryption":"","userInfo":"","userVipLevel":0,"userVipPic":""},{"aliMallSeller":false,"anony":true,"appendComment":"","attributes":"","attributesMap":"","aucNumId":"","auctionPicUrl":"","auctionPrice":"","auctionSku":"\xbb\xfa\xc9\xed\xd1\xd5\xc9\xab:\xba\xda\xc9\xab;\xcc\xd7\xb2\xcd\xc0\xe0\xd0\xcd:\xcc\xd7\xb2\xcd\xb6\xfe;\xb4\xe6\xb4\xa2\xc8\xdd\xc1\xbf:32MB;\xb0\xe6\xb1\xbe\xc0\xe0\xd0\xcd:\xd6\xd0\xb9\xfa\xb4\xf3\xc2\xbd","auctionTitle":"","buyCount":0,"carServiceLocation":"","cmsSource":"\xcc\xec\xc3\xa8","displayRatePic":"","displayRateSum":0,"displayUserLink":"","displayUserNick":"\xb1\xb4***\xd6\xf7","displayUserNumId":"","displayUserRateLink":"","dsr":0.0,"fromMall":true,"fromMemory":0,"gmtCreateTime":1492149177000,"id":307362477021,"pics":"","picsSmall":"","position":"","rateContent":"\xc0\xcf\xc8\xcb\xba\xdc\xc2\xfa\xd2\xe2\xa3\xac\xc2\xf4\xbc\xd2\xc8\xcb\xba\xdc\xba\xc3","rateDate":"2017-04-14 13:52:57","reply":"","sellerId":1710401270,"serviceRateContent":"","structuredRateList":[],"tamllSweetLevel":3,"tmallSweetPic":"tmall-grade-t3-18.png","tradeEndTime":1491731727000,"tradeId":"","useful":true,"userIdEncryption":"","userInfo":"","userVipLevel":0,"userVipPic":""},{"aliMallSeller":false,"anony":true,"appendComment":"","attributes":"","attributesMap":"","aucNumId":"","auctionPicUrl":"","auctionPrice":"","auctionSku":"\xbb\xfa\xc9\xed\xd1\xd5\xc9\xab:\xbd\xf0\xc9\xab;\xcc\xd7\xb2\xcd\xc0\xe0\xd0\xcd:\xb9\xd9\xb7\xbd\xb1\xea\xc5\xe4;\xb4\xe6\xb4\xa2\xc8\xdd\xc1\xbf:32MB;\xb0\xe6\xb1\xbe\xc0\xe0\xd0\xcd:\xd6\xd0\xb9\xfa\xb4\xf3\xc2\xbd","auctionTitle":"","buyCount":0,"carServiceLocation":"","cmsSource":"\xcc\xec\xc3\xa8","displayRatePic":"","displayRateSum":0,"displayUserLink":"","displayUserNick":"\xd2\xfe***\xc0\xf2","displayUserNumId":"","displayUserRateLink":"","dsr":0.0,"fromMall":true,"fromMemory":0,"gmtCreateTime":1492155422000,"id":307234033793,"pics":"","picsSmall":"","position":"","rateContent":"\xb8\xf8\xcd\xe2\xc6\xc5\xb5\xc4\xa1\xa3\xcb\xb5\xbb\xb9\xd0\xd0","rateDate":"2017-04-14 15:37:02","reply":"","sellerId":1710401270,"serviceRateContent":"","structuredRateList":[],"tamllSweetLevel":3,"tmallSweetPic":"tmall-grade-t3-18.png","tradeEndTime":1491297091000,"tradeId":"","useful":true,"userIdEncryption":"","userInfo":"","userVipLevel":0,"userVipPic":""},{"aliMallSeller":false,"anony":true,"appendComment":"","attributes":"","attributesMap":"","aucNumId":"","auctionPicUrl":"","auctionPrice":"","auctionSku":"\xbb\xfa\xc9\xed\xd1\xd5\xc9\xab:\xba\xec\xc9\xab;\xcc\xd7\xb2\xcd\xc0\xe0\xd0\xcd:\xcc\xd7\xb2\xcd\xd2\xbb;\xb4\xe6\xb4\xa2\xc8\xdd\xc1\xbf:32MB;\xb0\xe6\xb1\xbe\xc0\xe0\xd0\xcd:\xd6\xd0\xb9\xfa\xb4\xf3\xc2\xbd","auctionTitle":"","buyCount":0,"carServiceLocation":"","cmsSource":"\xcc\xec\xc3\xa8","displayRatePic":"","displayRateSum":0,"displayUserLink":"","displayUserNick":"\xb6\xa1***5","displayUserNumId":"","displayUserRateLink":"","dsr":0.0,"fromMall":true,"fromMemory":0,"gmtCreateTime":1492165059000,"id":307255963105,"pics":"","picsSmall":"","position":"","rateContent":"\xca\xd6\xbb\xfa\xbb\xb9\xd0\xd0\xa3\xac\xca\xc7\xb8\xf8\xc7\xd7\xc6\xdd\xc2\xf2\xb5\xc4\xa3\xac\xb7\xb4\xd3\xa6\xbb\xb9\xba\xc3\xa3\xac\xbe\xcd\xca\xc7\xb7\xa2\xbb\xf5\xb5\xd8\xd3\xd0\xb5\xe3\xb2\xbb\xb6\xae\xa3\xac\xd4\xbd\xb7\xa2\xd4\xbd\xd4\xb6\xa3\xac\xc0\xeb\xbc\xd2\xbd\xfc\xb5\xc4\xd6\xd0\xcd\xa8\xa3\xac\xd4\xb2\xcd\xa8\xa3\xac\xc9\xea\xcd\xa8\xb2\xbb\xb7\xa2\xa3\xac\xb7\xa2\xb5\xbd\xd3\xca\xd5\xfe\xc8\xa5\xc1\xcb\xa1\xa3\xd3\xca\xd5\xfe\xd3\xd6\xb2\xbb\xbb\xe1\xcb\xcd\xbb\xf5\xc9\xcf\xc3\xc5\xa3\xac\xd4\xce","rateDate":"2017-04-14 18:17:39","reply":"","sellerId":1710401270,"serviceRateContent":"","structuredRateList":[],"tamllSweetLevel":2,"tmallSweetPic":"tmall-grade-t2-18.png","tradeEndTime":1492006106000,"tradeId":"","useful":true,"userIdEncryption":"","userInfo":"","userVipLevel":0,"userVipPic":""},{"aliMallSeller":false,"anony":true,"appendComment":"","attributes":"","attributesMap":"","aucNumId":"","auctionPicUrl":"","auctionPrice":"","auctionSku":"\xbb\xfa\xc9\xed\xd1\xd5\xc9\xab:\xbd\xf0\xc9\xab;\xcc\xd7\xb2\xcd\xc0\xe0\xd0\xcd:\xb9\xd9\xb7\xbd\xb1\xea\xc5\xe4;\xb4\xe6\xb4\xa2\xc8\xdd\xc1\xbf:32MB;\xb0\xe6\xb1\xbe\xc0\xe0\xd0\xcd:\xd6\xd0\xb9\xfa\xb4\xf3\xc2\xbd","auctionTitle":"","buyCount":0,"carServiceLocation":"","cmsSource":"\xcc\xec\xc3\xa8","displayRatePic":"","displayRateSum":0,"displayUserLink":"","displayUserNick":"z***b","displayUserNumId":"","displayUserRateLink":"","dsr":0.0,"fromMall":true,"fromMemory":0,"gmtCreateTime":1492167062000,"id":307384525360,"pics":"","picsSmall":"","position":"","rateContent":"\xcd\xa6\xba\xc3\xb5\xc4","rateDate":"2017-04-14 18:51:02","reply":"","sellerId":1710401270,"serviceRateContent":"","structuredRateList":[],"tamllSweetLevel":0,"tmallSweetPic":"","tradeEndTime":1490875281000,"tradeId":"","useful":true,"userIdEncryption":"","userInfo":"","userVipLevel":0,"userVipPic":""}],"searchinfo":"","tags":""}})'